{
	"qa": {
		"wwx": "https://adobe.womanwithin.com",
		"rmx": "https://adobe.roamans.com",
		"ksx": "https://adobe.kingsize.com",
		"jlx": "https://adobe.jessicalondon.com",
		"elx": "https://adobe.ellos.us",
		"bhx": "https://adobe.brylanehome.com",
		"fbx": "https://adobe.fullbeauty.com",
		"sax": "https://adobes4a.fullbeauty.com"
	},
	"stgtest": {
		"wwx": "https://sfcc.stgtest.wwx.plussizetech.com",
		"rmx": "https://sfcc.stgtest.rmx.plussizetech.com",
		"ksx": "https://sfcc.stgtest.ksx.plussizetech.com",
		"jlx": "https://sfcc.stgtest.jlx.plussizetech.com",
		"elx": "https://sfcc.stgtest.elx.plussizetech.com",
		"bhx": "https://sfcc.stgtest.bhx.plussizetech.com",
		"fbx": "https://sfcc.stgtest.fbx.plussizetech.com",
		"sax": "https://sfcc.stgtest.sax.plussizetech.com"
	},
	"stg": {
		"wwx": "https://sfcc.stg.wwx.plussizetech.com",
		"rmx": "https://sfcc.stg.rmx.plussizetech.com",
		"ksx": "https://sfcc.stg.ksx.plussizetech.com",
		"jlx": "https://sfcc.stg.jlx.plussizetech.com",
		"elx": "https://sfcc.stg.elx.plussizetech.com",
		"bhx": "https://sfcc.stg.bhx.plussizetech.com",
		"fbx": "https://sfcc.stg.fbx.plussizetech.com",
		"sax": "https://sfcc.stg.sax.plussizetech.com"
	},
	"uat": {
		"wwx": "https://sfcc.uat.wwx.plussizetech.com",
		"rmx": "https://sfcc.uat.rmx.plussizetech.com",
		"ksx": "https://sfcc.uat.ksx.plussizetech.com",
		"jlx": "https://sfcc.uat.jlx.plussizetech.com",
		"elx": "https://sfcc.uat.elx.plussizetech.com",
		"bhx": "https://sfcc.uat.bhx.plussizetech.com",
		"fbx": "https://sfcc.uat.fbx.plussizetech.com",
		"sax": "https://sfcc.uat.sax.plussizetech.com"
	},
	"prod": {
		"wwx": "https://www.womanwithin.com",
		"rmx": "https://www.roamans.com",
		"ksx": "https://www.kingsize.com",
		"jlx": "https://www.jessicalondon.com",
		"elx": "https://www.ellos.us",
		"bhx": "https://www.brylanehome.com",
		"fbx": "https://www.fullbeauty.com",
		"sax": "https://swimsuitsforall.fullbeauty.com"
	}
}